<?xml version="1.0" encoding="UTF-8"?>
<!DOCTYPE svg PUBLIC "-//W3C//DTD SVG 1.1//EN" "http://www.w3.org/Graphics/SVG/1.1/DTD/svg11.dtd">
<svg width="203mm" height="90mm" viewBox="0 0 20300 9000" version="1.1" baseProfile="tiny" xmlns="http://www.w3.org/2000/svg" stroke-width="28.222" stroke-linejoin="round" xml:space="preserve">
 <path fill="rgb(255,255,255)" stroke="none" d="M 10171,8999 L 0,8999 0,0 20341,0 20341,8999 10171,8999 Z"/>
 <path fill="none" stroke="rgb(179,179,179)" stroke-linejoin="round" d="M 10939,6408 L 2224,6408 2224,2337 19655,2337 19655,6408 10939,6408 Z"/>
 <path fill="none" stroke="rgb(179,179,179)" stroke-linejoin="round" d="M 2223,2336 L 2223,6407"/>
 <path fill="none" stroke="rgb(179,179,179)" stroke-linejoin="round" d="M 3386,2336 L 3386,6407"/>
 <path fill="none" stroke="rgb(179,179,179)" stroke-linejoin="round" d="M 4548,2336 L 4548,6407"/>
 <path fill="none" stroke="rgb(179,179,179)" stroke-linejoin="round" d="M 5710,2336 L 5710,6407"/>
 <path fill="none" stroke="rgb(179,179,179)" stroke-linejoin="round" d="M 6872,2336 L 6872,6407"/>
 <path fill="none" stroke="rgb(179,179,179)" stroke-linejoin="round" d="M 8034,2336 L 8034,6407"/>
 <path fill="none" stroke="rgb(179,179,179)" stroke-linejoin="round" d="M 9196,2336 L 9196,6407"/>
 <path fill="none" stroke="rgb(179,179,179)" stroke-linejoin="round" d="M 10357,2336 L 10357,6407"/>
 <path fill="none" stroke="rgb(179,179,179)" stroke-linejoin="round" d="M 11520,2336 L 11520,6407"/>
 <path fill="none" stroke="rgb(179,179,179)" stroke-linejoin="round" d="M 12682,2336 L 12682,6407"/>
 <path fill="none" stroke="rgb(179,179,179)" stroke-linejoin="round" d="M 13844,2336 L 13844,6407"/>
 <path fill="none" stroke="rgb(179,179,179)" stroke-linejoin="round" d="M 15006,2336 L 15006,6407"/>
 <path fill="none" stroke="rgb(179,179,179)" stroke-linejoin="round" d="M 16168,2336 L 16168,6407"/>
 <path fill="none" stroke="rgb(179,179,179)" stroke-linejoin="round" d="M 17330,2336 L 17330,6407"/>
 <path fill="none" stroke="rgb(179,179,179)" stroke-linejoin="round" d="M 18492,2336 L 18492,6407"/>
 <path fill="none" stroke="rgb(179,179,179)" stroke-linejoin="round" d="M 19655,2336 L 19655,6407"/>
 <path fill="none" stroke="rgb(179,179,179)" stroke-linejoin="round" d="M 19655,6407 L 2223,6407"/>
 <path fill="none" stroke="rgb(179,179,179)" stroke-linejoin="round" d="M 19655,5592 L 2223,5592"/>
 <path fill="none" stroke="rgb(179,179,179)" stroke-linejoin="round" d="M 19655,4778 L 2223,4778"/>
 <path fill="none" stroke="rgb(179,179,179)" stroke-linejoin="round" d="M 19655,3964 L 2223,3964"/>
 <path fill="none" stroke="rgb(179,179,179)" stroke-linejoin="round" d="M 19655,3150 L 2223,3150"/>
 <path fill="none" stroke="rgb(179,179,179)" stroke-linejoin="round" d="M 19655,2336 L 2223,2336"/>
 <path fill="none" stroke="rgb(179,179,179)" stroke-linejoin="round" d="M 2223,6557 L 2223,6407"/>
 <path fill="none" stroke="rgb(179,179,179)" stroke-linejoin="round" d="M 2223,6557 L 2223,6407"/>
 <path fill="none" stroke="rgb(179,179,179)" stroke-linejoin="round" d="M 3386,6557 L 3386,6407"/>
 <path fill="none" stroke="rgb(179,179,179)" stroke-linejoin="round" d="M 3386,6557 L 3386,6407"/>
 <path fill="none" stroke="rgb(179,179,179)" stroke-linejoin="round" d="M 4548,6557 L 4548,6407"/>
 <path fill="none" stroke="rgb(179,179,179)" stroke-linejoin="round" d="M 4548,6557 L 4548,6407"/>
 <path fill="none" stroke="rgb(179,179,179)" stroke-linejoin="round" d="M 5710,6557 L 5710,6407"/>
 <path fill="none" stroke="rgb(179,179,179)" stroke-linejoin="round" d="M 5710,6557 L 5710,6407"/>
 <path fill="none" stroke="rgb(179,179,179)" stroke-linejoin="round" d="M 6872,6557 L 6872,6407"/>
 <path fill="none" stroke="rgb(179,179,179)" stroke-linejoin="round" d="M 6872,6557 L 6872,6407"/>
 <path fill="none" stroke="rgb(179,179,179)" stroke-linejoin="round" d="M 8034,6557 L 8034,6407"/>
 <path fill="none" stroke="rgb(179,179,179)" stroke-linejoin="round" d="M 8034,6557 L 8034,6407"/>
 <path fill="none" stroke="rgb(179,179,179)" stroke-linejoin="round" d="M 9196,6557 L 9196,6407"/>
 <path fill="none" stroke="rgb(179,179,179)" stroke-linejoin="round" d="M 9196,6557 L 9196,6407"/>
 <path fill="none" stroke="rgb(179,179,179)" stroke-linejoin="round" d="M 10357,6557 L 10357,6407"/>
 <path fill="none" stroke="rgb(179,179,179)" stroke-linejoin="round" d="M 10357,6557 L 10357,6407"/>
 <path fill="none" stroke="rgb(179,179,179)" stroke-linejoin="round" d="M 11520,6557 L 11520,6407"/>
 <path fill="none" stroke="rgb(179,179,179)" stroke-linejoin="round" d="M 11520,6557 L 11520,6407"/>
 <path fill="none" stroke="rgb(179,179,179)" stroke-linejoin="round" d="M 12682,6557 L 12682,6407"/>
 <path fill="none" stroke="rgb(179,179,179)" stroke-linejoin="round" d="M 12682,6557 L 12682,6407"/>
 <path fill="none" stroke="rgb(179,179,179)" stroke-linejoin="round" d="M 13844,6557 L 13844,6407"/>
 <path fill="none" stroke="rgb(179,179,179)" stroke-linejoin="round" d="M 13844,6557 L 13844,6407"/>
 <path fill="none" stroke="rgb(179,179,179)" stroke-linejoin="round" d="M 15006,6557 L 15006,6407"/>
 <path fill="none" stroke="rgb(179,179,179)" stroke-linejoin="round" d="M 15006,6557 L 15006,6407"/>
 <path fill="none" stroke="rgb(179,179,179)" stroke-linejoin="round" d="M 16168,6557 L 16168,6407"/>
 <path fill="none" stroke="rgb(179,179,179)" stroke-linejoin="round" d="M 16168,6557 L 16168,6407"/>
 <path fill="none" stroke="rgb(179,179,179)" stroke-linejoin="round" d="M 17330,6557 L 17330,6407"/>
 <path fill="none" stroke="rgb(179,179,179)" stroke-linejoin="round" d="M 17330,6557 L 17330,6407"/>
 <path fill="none" stroke="rgb(179,179,179)" stroke-linejoin="round" d="M 18492,6557 L 18492,6407"/>
 <path fill="none" stroke="rgb(179,179,179)" stroke-linejoin="round" d="M 18492,6557 L 18492,6407"/>
 <path fill="none" stroke="rgb(179,179,179)" stroke-linejoin="round" d="M 19655,6557 L 19655,6407"/>
 <path fill="none" stroke="rgb(179,179,179)" stroke-linejoin="round" d="M 19655,6557 L 19655,6407"/>
 <path fill="none" stroke="rgb(179,179,179)" stroke-linejoin="round" d="M 2223,6407 L 19655,6407"/>
 <path fill="none" stroke="rgb(179,179,179)" stroke-linejoin="round" d="M 2073,6407 L 2223,6407"/>
 <path fill="none" stroke="rgb(179,179,179)" stroke-linejoin="round" d="M 2073,6407 L 2223,6407"/>
 <path fill="none" stroke="rgb(179,179,179)" stroke-linejoin="round" d="M 2073,5592 L 2223,5592"/>
 <path fill="none" stroke="rgb(179,179,179)" stroke-linejoin="round" d="M 2073,5592 L 2223,5592"/>
 <path fill="none" stroke="rgb(179,179,179)" stroke-linejoin="round" d="M 2073,4778 L 2223,4778"/>
 <path fill="none" stroke="rgb(179,179,179)" stroke-linejoin="round" d="M 2073,4778 L 2223,4778"/>
 <path fill="none" stroke="rgb(179,179,179)" stroke-linejoin="round" d="M 2073,3964 L 2223,3964"/>
 <path fill="none" stroke="rgb(179,179,179)" stroke-linejoin="round" d="M 2073,3964 L 2223,3964"/>
 <path fill="none" stroke="rgb(179,179,179)" stroke-linejoin="round" d="M 2073,3150 L 2223,3150"/>
 <path fill="none" stroke="rgb(179,179,179)" stroke-linejoin="round" d="M 2073,3150 L 2223,3150"/>
 <path fill="none" stroke="rgb(179,179,179)" stroke-linejoin="round" d="M 2073,2336 L 2223,2336"/>
 <path fill="none" stroke="rgb(179,179,179)" stroke-linejoin="round" d="M 2073,2336 L 2223,2336"/>
 <path fill="none" stroke="rgb(179,179,179)" stroke-linejoin="round" d="M 2223,6407 L 2223,2336"/>
 <path fill="none" stroke="rgb(255,66,14)" stroke-width="80" stroke-linejoin="round" d="M 2223,2865 L 2253,2880 2282,2895 2311,2911 2340,2926 2369,2941 2398,2956 2427,2971 2456,2986 2485,3001 2514,3015 2543,3030 2572,3044 2601,3058 2630,3072 2659,3086 2688,3099 2717,3112 2746,3125 2776,3138 2805,3150 2834,3162 2863,3174 2892,3185 2921,3196 2950,3207 2979,3218 3008,3229 3037,3239 3066,3250 3095,3260 3124,3271 3153,3281 3182,3292 3211,3303 3240,3313 3269,3324 3298,3335 3328,3347 3357,3358 3386,3370 3415,3382 3444,3394 3473,3407 3502,3419 3531,3432 3560,3445 3589,3458 3618,3472 3647,3485 3676,3498 3705,3511 3734,3524 3763,3537 3792,3550 3821,3563 3850,3575 3880,3587 3909,3599 3938,3611 3967,3622 3996,3633 4025,3644 4054,3654 4083,3664 4112,3674 4141,3684 4170,3694 4199,3704 4228,3713 4257,3723 4286,3733 4315,3743 4344,3753 4373,3764 4402,3774 4432,3785 4461,3797 4490,3809 4519,3821 4548,3834 4577,3847 4606,3861 4635,3876 4664,3891 4693,3906 4722,3921 4751,3937 4780,3953 4809,3969 4838,3985 4867,4001 4896,4017 4925,4033 4955,4048 4984,4064 5013,4079 5042,4094 5071,4108 5100,4122 5129,4135 5158,4148 5187,4160 5216,4172 5245,4184 5274,4195 5303,4206 5332,4216 5361,4226 5390,4237 5419,4247 5448,4257 5477,4267 5507,4277 5536,4287 5565,4298 5594,4309 5623,4320 5652,4331 5681,4343 5710,4355 5739,4368 5768,4381 5797,4395 5826,4409 5855,4423 5884,4438 5913,4452 5942,4467 5971,4482 6000,4496 6029,4510 6059,4524 6088,4538 6117,4552 6146,4565 6175,4578 6204,4590 6233,4602 6262,4613 6291,4623 6320,4633 6349,4641 6378,4650 6407,4657 6436,4664 6465,4671 6494,4677 6523,4683 6552,4689 6581,4694 6611,4700 6640,4705 6669,4710 6698,4716 6727,4721 6756,4727 6785,4733 6814,4739 6843,4746 6872,4753 6901,4761 6930,4769 6959,4778 6988,4787 7017,4797 7046,4806 7075,4816 7104,4826 7134,4836 7163,4847 7192,4857 7221,4867 7250,4877 7279,4887 7308,4897 7337,4906 7366,4916 7395,4924 7424,4933 7453,4941 7482,4948 7511,4955 7540,4961 7569,4967 7598,4973 7627,4978 7656,4983 7686,4987 7715,4992 7744,4996 7773,4999 7802,5003 7831,5007 7860,5010 7889,5013 7918,5017 7947,5020 7976,5023 8005,5027 8034,5030 8063,5034 8092,5037 8121,5041 8150,5045 8179,5049 8208,5054 8238,5058 8267,5063 8296,5067 8325,5072 8354,5077 8383,5082 8412,5087 8441,5093 8470,5098 8499,5104 8528,5110 8557,5116 8586,5122 8615,5128 8644,5134 8673,5141 8702,5147 8731,5154 8761,5161 8790,5168 8819,5175 8848,5182 8877,5188 8906,5195 8935,5202 8964,5209 8993,5216 9022,5222 9051,5229 9080,5235 9109,5241 9138,5247 9167,5253 9196,5258 9225,5263 9254,5269 9283,5273 9313,5278 9342,5283 9371,5287 9400,5291 9429,5295 9458,5299 9487,5303 9516,5307 9545,5310 9574,5314 9603,5318 9632,5321 9661,5325 9690,5328 9719,5332 9748,5336 9777,5340 9806,5344 9835,5347 9865,5352 9894,5356 9923,5360 9952,5364 9981,5368 10010,5373 10039,5377 10068,5382 10097,5386 10126,5391 10155,5396 10183,5400 10212,5405 10241,5410 10270,5415 10299,5419 10328,5424 10357,5429 10386,5434 10416,5439 10445,5444 10474,5449 10503,5454 10532,5459 10561,5464 10590,5470 10619,5475 10648,5481 10677,5486 10706,5492 10735,5498 10764,5504 10793,5510 10822,5516 10851,5523 10880,5529 10909,5536 10939,5543 10968,5550 10997,5558 11026,5565 11055,5573 11084,5581 11113,5589 11142,5597 11171,5605 11200,5612 11229,5620 11258,5628 11287,5636 11316,5643 11345,5651 11374,5658 11403,5665 11432,5671 11461,5678 11491,5684 11520,5690 11549,5695 11578,5700 11607,5705 11636,5710 11665,5714 11694,5718 11723,5722 11752,5726 11781,5729 11810,5732 11839,5736 11868,5739 11897,5742 11926,5745 11955,5748 11984,5751 12013,5754 12043,5757 12072,5760 12101,5763 12130,5766 12159,5770 12188,5774 12217,5777 12246,5781 12275,5785 12304,5789 12333,5793 12362,5798 12391,5802 12420,5807 12449,5811 12478,5816 12507,5821 12536,5826 12565,5831 12595,5836 12624,5842 12653,5847 12682,5853 12711,5858 12740,5864 12769,5870 12798,5876 12827,5882 12856,5888 12885,5894 12914,5901 12943,5907 12972,5913 13001,5919 13030,5926 13059,5932 13088,5938 13118,5944 13147,5951 13176,5957 13205,5963 13234,5969 13263,5975 13292,5981 13321,5987 13350,5992 13379,5998 13408,6004 13437,6009 13466,6015 13495,6020 13524,6025 13553,6031 13582,6036 13611,6041 13640,6046 13670,6051 13699,6056 13728,6061 13757,6066 13786,6071 13815,6076 13844,6081 13873,6086 13902,6090 13931,6095 13960,6100 13989,6105 14018,6109 14047,6114 14076,6118 14105,6123 14134,6128 14163,6132 14192,6136 14222,6141 14251,6145 14280,6149 14309,6154 14338,6158 14367,6162 14396,6166 14425,6170 14454,6174 14483,6178 14512,6182 14541,6186 14570,6190 14599,6194 14628,6197 14657,6201 14686,6205 14715,6208 14744,6212 14774,6216 14803,6219 14832,6223 14861,6226 14890,6230 14919,6233 14948,6237 14977,6240 15006,6244 15035,6247 15064,6250 15093,6254 15122,6257 15151,6261 15180,6264 15209,6267 15238,6271 15267,6274 15297,6277 15326,6281 15355,6284 15384,6287 15413,6290 15442,6293 15471,6297 15500,6300 15529,6303 15558,6306 15587,6309 15616,6312 15645,6315 15674,6318 15703,6320 15732,6323 15761,6326 15790,6329 15819,6331 15849,6334 15878,6336 15907,6339 15936,6341 15965,6344 15994,6346 16023,6348 16052,6350 16081,6352 16110,6354 16139,6356 16168,6358 16197,6359 16226,6361 16255,6362 16284,6364 16313,6365 16342,6366 16371,6368 16401,6369 16430,6370 16459,6371 16488,6372 16517,6373 16546,6374 16575,6375 16604,6376 16633,6377 16662,6379 16691,6380 16720,6381 16749,6382 16778,6383 16807,6385 16836,6386 16865,6387 16894,6389 16923,6390 16953,6392 16982,6393 17011,6394 17040,6396 17069,6397 17098,6398 17127,6400 17156,6401 17185,6402 17214,6403 17243,6404 17272,6405 17301,6406 17330,6407"/>
 <path fill="none" stroke="rgb(255,66,14)" stroke-width="80" stroke-linejoin="round" d="M 17911,6407 L 17940,6406 17969,6406 17998,6406 18028,6406 18057,6406 18086,6406 18115,6406 18144,6406 18173,6406 18202,6406 18231,6406 18260,6406 18289,6406 18318,6406 18347,6406 18376,6406 18405,6406 18434,6406 18463,6406 18492,6407"/>
 <path fill="none" stroke="rgb(255,66,14)" stroke-width="80" stroke-linejoin="round" d="M 19073,6407 L 19102,6406 19132,6406 19161,6406 19190,6406 19219,6406 19248,6406 19277,6406 19306,6406 19335,6406 19364,6406 19393,6406 19422,6406 19451,6406 19480,6406 19509,6406 19538,6406 19567,6406 19596,6406 19625,6406 19655,6407"/>
 <path fill="none" stroke="rgb(0,69,134)" stroke-width="80" stroke-linejoin="round" d="M 2223,3386 L 2253,3398 2282,3410 2311,3422 2340,3434 2369,3446 2398,3458 2427,3471 2456,3483 2485,3495 2514,3507 2543,3519 2572,3531 2601,3544 2630,3556 2659,3568 2688,3581 2717,3593 2746,3605 2776,3618 2805,3630 2834,3643 2863,3656 2892,3668 2921,3681 2950,3694 2979,3707 3008,3720 3037,3733 3066,3746 3095,3759 3124,3773 3153,3786 3182,3800 3211,3814 3240,3828 3269,3842 3298,3856 3328,3870 3357,3885 3386,3899 3415,3914 3444,3929 3473,3944 3502,3959 3531,3974 3560,3989 3589,4004 3618,4019 3647,4034 3676,4049 3705,4064 3734,4079 3763,4093 3792,4107 3821,4121 3850,4134 3880,4147 3909,4160 3938,4172 3967,4184 3996,4196 4025,4207 4054,4217 4083,4228 4112,4238 4141,4247 4170,4257 4199,4266 4228,4275 4257,4284 4286,4293 4315,4302 4344,4312 4373,4321 4402,4330 4432,4339 4461,4349 4490,4359 4519,4369 4548,4380 4577,4391 4606,4402 4635,4413 4664,4425 4693,4437 4722,4449 4751,4461 4780,4474 4809,4486 4838,4499 4867,4510 4896,4523 4925,4535 4955,4547 4984,4559 5013,4571 5042,4582 5071,4593 5100,4604 5129,4615 5158,4625 5187,4635 5216,4644 5245,4653 5274,4662 5303,4670 5332,4678 5361,4686 5390,4693 5419,4701 5448,4708 5477,4715 5507,4722 5536,4729 5565,4736 5594,4743 5623,4749 5652,4756 5681,4763 5710,4770 5739,4776 5768,4783 5797,4790 5826,4797 5855,4804 5884,4811 5913,4818 5942,4825 5971,4832 6000,4839 6029,4845 6059,4852 6088,4858 6117,4865 6146,4871 6175,4877 6204,4883 6233,4889 6262,4895 6291,4900 6320,4905 6349,4910 6378,4915 6407,4919 6436,4924 6465,4928 6494,4932 6523,4936 6552,4941 6581,4945 6611,4949 6640,4953 6669,4957 6698,4961 6727,4966 6756,4970 6785,4975 6814,4979 6843,4984 6872,4989 6901,4995 6930,5000 6959,5006 6988,5012 7017,5018 7046,5024 7075,5030 7104,5037 7134,5043 7163,5049 7192,5056 7221,5062 7250,5069 7279,5075 7308,5082 7337,5088 7366,5094 7395,5100 7424,5106 7453,5112 7482,5117 7511,5123 7540,5128 7569,5133 7598,5138 7627,5143 7656,5147 7686,5152 7715,5156 7744,5161 7773,5165 7802,5169 7831,5173 7860,5177 7889,5181 7918,5185 7947,5189 7976,5193 8005,5197 8034,5201 8063,5205 8092,5209 8121,5213 8150,5217 8179,5221 8208,5225 8238,5229 8267,5233 8296,5237 8325,5241 8354,5245 8383,5250 8412,5254 8441,5258 8470,5262 8499,5266 8528,5270 8557,5274 8586,5278 8615,5283 8644,5287 8673,5291 8702,5295 8731,5299 8761,5304 8790,5308 8819,5313 8848,5317 8877,5322 8906,5327 8935,5332 8964,5338 8993,5343 9022,5349 9051,5355 9080,5361 9109,5367 9138,5374 9167,5381 9196,5389 9225,5396 9254,5404 9283,5412 9313,5421 9342,5429 9371,5438 9400,5447 9429,5456 9458,5464 9487,5473 9516,5482 9545,5491 9574,5499 9603,5508 9632,5516 9661,5523 9690,5531 9719,5538 9748,5545 9777,5551 9806,5557 9835,5563 9865,5568 9894,5573 9923,5577 9952,5581 9981,5585 10010,5589 10039,5593 10068,5596 10097,5600 10126,5603 10155,5606 10183,5610 10212,5613 10241,5617 10270,5621 10299,5624 10328,5628 10357,5633 10386,5637 10416,5642 10445,5647 10474,5653 10503,5658 10532,5664 10561,5670 10590,5675 10619,5681 10648,5687 10677,5693 10706,5699 10735,5704 10764,5710 10793,5715 10822,5720 10851,5725 10880,5730 10909,5735 10939,5739 10968,5743 10997,5746 11026,5749 11055,5752 11084,5755 11113,5758 11142,5761 11171,5763 11200,5766 11229,5768 11258,5771 11287,5774 11316,5776 11345,5779 11374,5783 11403,5786 11432,5790 11461,5794 11491,5799 11520,5804 11549,5809 11578,5815 11607,5821 11636,5828 11665,5835 11694,5842 11723,5850 11752,5857 11781,5865 11810,5873 11839,5881 11868,5889 11897,5897 11926,5905 11955,5913 11984,5921 12013,5929 12043,5936 12072,5943 12101,5950 12130,5957 12159,5964 12188,5970 12217,5976 12246,5982 12275,5987 12304,5992 12333,5997 12362,6002 12391,6007 12420,6012 12449,6016 12478,6020 12507,6025 12536,6029 12565,6033 12595,6037 12624,6040 12653,6044 12682,6048 12711,6052 12740,6056 12769,6060 12798,6063 12827,6067 12856,6071 12885,6074 12914,6078 12943,6082 12972,6086 13001,6089 13030,6093 13059,6096 13088,6100 13118,6104 13147,6107 13176,6111 13205,6114 13234,6118 13263,6121 13292,6125 13321,6128 13350,6132 13379,6135 13408,6139 13437,6142 13466,6146 13495,6149 13524,6152 13553,6156 13582,6159 13611,6162 13640,6165 13670,6168 13699,6172 13728,6175 13757,6178 13786,6181 13815,6184 13844,6187 13873,6190 13902,6192 13931,6195 13960,6198 13989,6201 14018,6203 14047,6206 14076,6209 14105,6211 14134,6214 14163,6216 14192,6218 14222,6221 14251,6223 14280,6225 14309,6227 14338,6229 14367,6232 14396,6234 14425,6235 14454,6237 14483,6239 14512,6241 14541,6243 14570,6244 14599,6246 14628,6248 14657,6249 14686,6251 14715,6252 14744,6254 14774,6256 14803,6257 14832,6259 14861,6260 14890,6262 14919,6263 14948,6265 14977,6266 15006,6268 15035,6270 15064,6271 15093,6273 15122,6275 15151,6276 15180,6278 15209,6280 15238,6282 15267,6283 15297,6285 15326,6287 15355,6288 15384,6290 15413,6292 15442,6293 15471,6295 15500,6296 15529,6298 15558,6299 15587,6301 15616,6302 15645,6303 15674,6304 15703,6306 15732,6307 15761,6308 15790,6309 15819,6310 15849,6311 15878,6311 15907,6312 15936,6313 15965,6314 15994,6314 16023,6315 16052,6315 16081,6316 16110,6316 16139,6317 16168,6317 16197,6317 16226,6317 16255,6318 16284,6318 16313,6318 16342,6318 16371,6318 16401,6318 16430,6318 16459,6318 16488,6318 16517,6318 16546,6318 16575,6318 16604,6317 16633,6317 16662,6317 16691,6317 16720,6317 16749,6317 16778,6317 16807,6317 16836,6317 16865,6317 16894,6317 16923,6317 16953,6317 16982,6317 17011,6317 17040,6317 17069,6317 17098,6317 17127,6317 17156,6317 17185,6317 17214,6317 17243,6317 17272,6317 17301,6317 17330,6317 17359,6317 17388,6317 17417,6317 17446,6317 17476,6317 17505,6317 17534,6317 17563,6317 17592,6317 17621,6317 17650,6317 17679,6317 17708,6317 17737,6317 17766,6317 17795,6317 17824,6317 17853,6317 17882,6317 17911,6317 17940,6317 17969,6317 17998,6317 18028,6317 18057,6317 18086,6317 18115,6317 18144,6317 18173,6317 18202,6317 18231,6317 18260,6317 18289,6317 18318,6317 18347,6317 18376,6317 18405,6317 18434,6317 18463,6317 18492,6317 18521,6317 18550,6317 18580,6317 18609,6317 18638,6317 18667,6317 18696,6317 18725,6317 18754,6317 18783,6317 18812,6317 18841,6317 18870,6317 18899,6317 18928,6317 18957,6317 18986,6317 19015,6317 19044,6317 19073,6317 19102,6317 19132,6317 19161,6317 19190,6317 19219,6317 19248,6317 19277,6317 19306,6317 19335,6317 19364,6317 19393,6317 19422,6317 19451,6317 19480,6317 19509,6317 19538,6317 19567,6317 19596,6317 19625,6317 19655,6317"/>
 <text class="TextShape"><tspan class="TextParagraph" font-family="Liberation Sans" font-size="353px" font-weight="400"><tspan class="TextPosition" x="1945" y="6975"/><tspan class="TextPosition" x="1945" y="6975"><tspan fill="rgb(0,0,0)" stroke="none">100</tspan></tspan></tspan></text>
 <text class="TextShape"><tspan class="TextParagraph" font-family="Liberation Sans" font-size="353px" font-weight="400"><tspan class="TextPosition" x="3108" y="6975"/><tspan class="TextPosition" x="3108" y="6975"><tspan fill="rgb(0,0,0)" stroke="none">116</tspan></tspan></tspan></text>
 <text class="TextShape"><tspan class="TextParagraph" font-family="Liberation Sans" font-size="353px" font-weight="400"><tspan class="TextPosition" x="4270" y="6975"/><tspan class="TextPosition" x="4270" y="6975"><tspan fill="rgb(0,0,0)" stroke="none">132</tspan></tspan></tspan></text>
 <text class="TextShape"><tspan class="TextParagraph" font-family="Liberation Sans" font-size="353px" font-weight="400"><tspan class="TextPosition" x="5432" y="6975"/><tspan class="TextPosition" x="5432" y="6975"><tspan fill="rgb(0,0,0)" stroke="none">148</tspan></tspan></tspan></text>
 <text class="TextShape"><tspan class="TextParagraph" font-family="Liberation Sans" font-size="353px" font-weight="400"><tspan class="TextPosition" x="6594" y="6975"/><tspan class="TextPosition" x="6594" y="6975"><tspan fill="rgb(0,0,0)" stroke="none">164</tspan></tspan></tspan></text>
 <text class="TextShape"><tspan class="TextParagraph" font-family="Liberation Sans" font-size="353px" font-weight="400"><tspan class="TextPosition" x="7756" y="6975"/><tspan class="TextPosition" x="7756" y="6975"><tspan fill="rgb(0,0,0)" stroke="none">180</tspan></tspan></tspan></text>
 <text class="TextShape"><tspan class="TextParagraph" font-family="Liberation Sans" font-size="353px" font-weight="400"><tspan class="TextPosition" x="8918" y="6975"/><tspan class="TextPosition" x="8918" y="6975"><tspan fill="rgb(0,0,0)" stroke="none">196</tspan></tspan></tspan></text>
 <text class="TextShape"><tspan class="TextParagraph" font-family="Liberation Sans" font-size="353px" font-weight="400"><tspan class="TextPosition" x="10080" y="6975"/><tspan class="TextPosition" x="10080" y="6975"><tspan fill="rgb(0,0,0)" stroke="none">212</tspan></tspan></tspan></text>
 <text class="TextShape"><tspan class="TextParagraph" font-family="Liberation Sans" font-size="353px" font-weight="400"><tspan class="TextPosition" x="11243" y="6975"/><tspan class="TextPosition" x="11243" y="6975"><tspan fill="rgb(0,0,0)" stroke="none">228</tspan></tspan></tspan></text>
 <text class="TextShape"><tspan class="TextParagraph" font-family="Liberation Sans" font-size="353px" font-weight="400"><tspan class="TextPosition" x="12405" y="6975"/><tspan class="TextPosition" x="12405" y="6975"><tspan fill="rgb(0,0,0)" stroke="none">244</tspan></tspan></tspan></text>
 <text class="TextShape"><tspan class="TextParagraph" font-family="Liberation Sans" font-size="353px" font-weight="400"><tspan class="TextPosition" x="13567" y="6975"/><tspan class="TextPosition" x="13567" y="6975"><tspan fill="rgb(0,0,0)" stroke="none">260</tspan></tspan></tspan></text>
 <text class="TextShape"><tspan class="TextParagraph" font-family="Liberation Sans" font-size="353px" font-weight="400"><tspan class="TextPosition" x="14729" y="6975"/><tspan class="TextPosition" x="14729" y="6975"><tspan fill="rgb(0,0,0)" stroke="none">276</tspan></tspan></tspan></text>
 <text class="TextShape"><tspan class="TextParagraph" font-family="Liberation Sans" font-size="353px" font-weight="400"><tspan class="TextPosition" x="15891" y="6975"/><tspan class="TextPosition" x="15891" y="6975"><tspan fill="rgb(0,0,0)" stroke="none">292</tspan></tspan></tspan></text>
 <text class="TextShape"><tspan class="TextParagraph" font-family="Liberation Sans" font-size="353px" font-weight="400"><tspan class="TextPosition" x="17053" y="6975"/><tspan class="TextPosition" x="17053" y="6975"><tspan fill="rgb(0,0,0)" stroke="none">308</tspan></tspan></tspan></text>
 <text class="TextShape"><tspan class="TextParagraph" font-family="Liberation Sans" font-size="353px" font-weight="400"><tspan class="TextPosition" x="18215" y="6975"/><tspan class="TextPosition" x="18215" y="6975"><tspan fill="rgb(0,0,0)" stroke="none">324</tspan></tspan></tspan></text>
 <text class="TextShape"><tspan class="TextParagraph" font-family="Liberation Sans" font-size="353px" font-weight="400"><tspan class="TextPosition" x="19378" y="6975"/><tspan class="TextPosition" x="19378" y="6975"><tspan fill="rgb(0,0,0)" stroke="none">340</tspan></tspan></tspan></text>
 <text class="TextShape"><tspan class="TextParagraph" font-family="Liberation Sans" font-size="353px" font-weight="400"><tspan class="TextPosition" x="1788" y="6528"/><tspan class="TextPosition" x="1788" y="6528"><tspan fill="rgb(0,0,0)" stroke="none">0</tspan></tspan></tspan></text>
 <text class="TextShape"><tspan class="TextParagraph" font-family="Liberation Sans" font-size="353px" font-weight="400"><tspan class="TextPosition" x="1417" y="5713"/><tspan class="TextPosition" x="1417" y="5713"><tspan fill="rgb(0,0,0)" stroke="none">100</tspan></tspan></tspan></text>
 <text class="TextShape"><tspan class="TextParagraph" font-family="Liberation Sans" font-size="353px" font-weight="400"><tspan class="TextPosition" x="1417" y="4899"/><tspan class="TextPosition" x="1417" y="4899"><tspan fill="rgb(0,0,0)" stroke="none">200</tspan></tspan></tspan></text>
 <text class="TextShape"><tspan class="TextParagraph" font-family="Liberation Sans" font-size="353px" font-weight="400"><tspan class="TextPosition" x="1417" y="4084"/><tspan class="TextPosition" x="1417" y="4084"><tspan fill="rgb(0,0,0)" stroke="none">300</tspan></tspan></tspan></text>
 <text class="TextShape"><tspan class="TextParagraph" font-family="Liberation Sans" font-size="353px" font-weight="400"><tspan class="TextPosition" x="1417" y="3270"/><tspan class="TextPosition" x="1417" y="3270"><tspan fill="rgb(0,0,0)" stroke="none">400</tspan></tspan></tspan></text>
 <text class="TextShape"><tspan class="TextParagraph" font-family="Liberation Sans" font-size="353px" font-weight="400"><tspan class="TextPosition" x="1417" y="2456"/><tspan class="TextPosition" x="1417" y="2456"><tspan fill="rgb(0,0,0)" stroke="none">500</tspan></tspan></tspan></text>
 <text class="TextShape"><tspan class="TextParagraph" font-family="Liberation Sans" font-size="459px" font-weight="400"><tspan class="TextPosition" x="738" y="1037"/><tspan class="TextPosition" x="738" y="1037"><tspan fill="rgb(0,0,0)" stroke="none">Změna počtu transakcí dodávek přicházejících do front s rostoucí kapacitou skladiště spalovny</tspan></tspan></tspan></text>
 <text class="TextShape"><tspan class="TextParagraph" font-family="Liberation Sans" font-size="388px" font-weight="400"><tspan class="TextPosition" x="4760" y="1761"/><tspan class="TextPosition" x="4760" y="1761"><tspan fill="rgb(0,0,0)" stroke="none">Měřeno pro časové období 90 dnů v rozsahu kapacity 100 - 340</tspan></tspan></tspan></text>
 <path fill="none" stroke="rgb(0,69,134)" stroke-width="80" stroke-linejoin="round" d="M 2393,8514 L 3193,8514"/>
 <path fill="none" stroke="rgb(255,66,14)" stroke-width="80" stroke-linejoin="round" d="M 9004,8514 L 9804,8514"/>
 <text class="TextShape"><tspan class="TextParagraph" font-family="Liberation Sans" font-size="353px" font-weight="400"><tspan class="TextPosition" x="3293" y="8634"/><tspan class="TextPosition" x="3293" y="8634"><tspan fill="rgb(0,0,0)" stroke="none">Počet příchozích do fronty k Rampě</tspan></tspan></tspan></text>
 <text class="TextShape"><tspan class="TextParagraph" font-family="Liberation Sans" font-size="353px" font-weight="400"><tspan class="TextPosition" x="9904" y="8634"/><tspan class="TextPosition" x="9904" y="8634"><tspan fill="rgb(0,0,0)" stroke="none">Počet příchozích do fronty k volné kapacitě skladiště</tspan></tspan></tspan></text>
 <text class="TextShape"><tspan class="TextParagraph" font-family="Liberation Sans" font-size="318px" font-weight="400"><tspan class="TextPosition" x="8665" y="7622"/><tspan class="TextPosition" x="8665" y="7622"><tspan fill="rgb(0,0,0)" stroke="none">Kapacita skladiště spalovny</tspan></tspan></tspan></text>
 <text class="TextShape" transform="translate(837,7123) rotate(-90) translate(-837,-7123)"><tspan class="TextParagraph" font-family="Liberation Sans" font-size="318px" font-weight="400"><tspan class="TextPosition" x="837" y="7123"/><tspan class="TextPosition" x="837" y="7123"><tspan fill="rgb(0,0,0)" stroke="none">Počet příchozích transakcí do fronty</tspan></tspan></tspan></text>
</svg>